{
  "DOMAIN_LOCAL": "localhost:8080",
  "DOMAIN": "myaccounting-online.herokuapp.com",
  "FACEBOOK_CLIENT_ID_TEST": "319650778424949",
  "FACEBOOK_CLIENT_SECRET_TEST": "cee1c68475519083a42d5d5b74541fb4",
  "FACEBOOK_CLIENT_ID": "293486751041352",
  "FACEBOOK_CLIENT_SECRET": "10be5cf104658ce48845e8a6be939423"
}